…
Look at residuals

``` r
fit_df =
  fit_df %>% 
  modelr::add_residuals(model_1) %>% 
  modelr::add_predictions(model_1)

fit_df
```

    ## # A tibble: 4,342 x 11
    ##      bwt delwt gaweeks menarche mheight momage ppbmi  ppwt smoken   resid  pred
    ##    <dbl> <dbl>   <dbl>    <dbl>   <dbl>  <dbl> <dbl> <dbl>  <dbl>   <dbl> <dbl>
    ##  1  3629   177    39.9       13      63     36  26.3   148      0  115.   3514.
    ##  2  3062   156    25.9       14      65     25  21.3   128      0  557.   2505.
    ##  3  3345   148    39.9       12      64     29  23.6   137      1  115.   3230.
    ##  4  3062   157    40         14      64     18  21.8   127     10  -94.6  3157.
    ##  5  3374   156    41.6       13      66     20  21.0   130      1    5.57 3368.
    ##  6  3374   129    40.7       12      66     23  18.6   115      0  157.   3217.
    ##  7  2523   126    40.3       14      72     29  14.3   105      0 -957.   3480.
    ##  8  2778   140    37.4       12      62     19  21.8   119      0 -183.   2961.
    ##  9  3515   146    40.3       11      61     13  19.9   105      0  330.   3185.
    ## 10  3459   169    40.7       12      64     19  24.9   145      4  185.   3274.
    ## # … with 4,332 more rows
…
